Challenge 1 Instructions
…
birds_csv <- read_csv("_data/birds.csv")

Add any comments or documentation as needed. More challenging data sets may require additional code chunks and documentation.

Describe the data

Using a combination of words and results of R commands, can you provide a high level description of the data? Describe as efficiently as possible where/how the data was (likely) gathered, indicate the cases and variables (both the interpretation and any details you deem useful to the reader to fully understand your chosen data).

View of the data

Code

birds_csv

# A tibble: 30,977 × 14
   Domain Cod…¹ Domain Area …² Area  Eleme…³ Element Item …⁴ Item  Year …⁵  Year
   <chr>        <chr>    <dbl> <chr>   <dbl> <chr>     <dbl> <chr>   <dbl> <dbl>
 1 QA           Live …       2 Afgh…    5112 Stocks     1057 Chic…    1961  1961
 2 QA           Live …       2 Afgh…    5112 Stocks     1057 Chic…    1962  1962
 3 QA           Live …       2 Afgh…    5112 Stocks     1057 Chic…    1963  1963
 4 QA           Live …       2 Afgh…    5112 Stocks     1057 Chic…    1964  1964
 5 QA           Live …       2 Afgh…    5112 Stocks     1057 Chic…    1965  1965
 6 QA           Live …       2 Afgh…    5112 Stocks     1057 Chic…    1966  1966
 7 QA           Live …       2 Afgh…    5112 Stocks     1057 Chic…    1967  1967
 8 QA           Live …       2 Afgh…    5112 Stocks     1057 Chic…    1968  1968
 9 QA           Live …       2 Afgh…    5112 Stocks     1057 Chic…    1969  1969
10 QA           Live …       2 Afgh…    5112 Stocks     1057 Chic…    1970  1970
# … with 30,967 more rows, 4 more variables: Unit <chr>, Value <dbl>,
#   Flag <chr>, `Flag Description` <chr>, and abbreviated variable names
#   ¹​`Domain Code`, ²​`Area Code`, ³​`Element Code`, ⁴​`Item Code`, ⁵​`Year Code`
…
length(unique(birds_csv$Item))

[1] 5

After the following analysis it is clear that the data has been collected across the world for different countries from 1961 to 2018. The data is very specific to few types of the birds like chickens, ducks etc. We can say that the data is majorly from the poultry farms across the world. This might have other animals since they are only focusing the birds the entries are restricted to poultry birds. This data might be used to keep a track of the poultry birds in the that area with the count. There are total 248 countries for 5 different kind of birds including other birds. However, some the rows are still not clear of their purpose.

Viewing data for a particular Country for further analysis

Code

birds_csv_america <- filter(birds_csv, Area == "Europe")
birds_csv_america

# A tibble: 290 × 14
   Domain Cod…¹ Domain Area …² Area  Eleme…³ Element Item …⁴ Item  Year …⁵  Year
   <chr>        <chr>    <dbl> <chr>   <dbl> <chr>     <dbl> <chr>   <dbl> <dbl>
 1 QA           Live …    5400 Euro…    5112 Stocks     1057 Chic…    1961  1961
 2 QA           Live …    5400 Euro…    5112 Stocks     1057 Chic…    1962  1962
 3 QA           Live …    5400 Euro…    5112 Stocks     1057 Chic…    1963  1963
 4 QA           Live …    5400 Euro…    5112 Stocks     1057 Chic…    1964  1964
 5 QA           Live …    5400 Euro…    5112 Stocks     1057 Chic…    1965  1965
 6 QA           Live …    5400 Euro…    5112 Stocks     1057 Chic…    1966  1966
 7 QA           Live …    5400 Euro…    5112 Stocks     1057 Chic…    1967  1967
 8 QA           Live …    5400 Euro…    5112 Stocks     1057 Chic…    1968  1968
 9 QA           Live …    5400 Euro…    5112 Stocks     1057 Chic…    1969  1969
10 QA           Live …    5400 Euro…    5112 Stocks     1057 Chic…    1970  1970
# … with 280 more rows, 4 more variables: Unit <chr>, Value <dbl>, Flag <chr>,
#   `Flag Description` <chr>, and abbreviated variable names ¹​`Domain Code`,
#   ²​`Area Code`, ³​`Element Code`, ⁴​`Item Code`, ⁵​`Year Code`
…
