Challenge 6
…
hotel_bookings ⭐⭐⭐⭐

air_bnb ⭐⭐⭐⭐⭐

HotelBookings_csv <- read_csv("_data/hotel_bookings.csv")

As I am already familiar with hotel booking data from challenge 2,4. I choose this data set to work on in challenge 6. Because from challenge 2,4 there is lot of time dependent data which can be better analyzed.

Briefly describe the data

Some of my analysis is based on challenge 2,4. Reflecting on those please refer below.

HotelBookings_csv

# A tibble: 119,390 × 32
   hotel  is_ca…¹ lead_…² arriv…³ arriv…⁴ arriv…⁵ arriv…⁶ stays…⁷ stays…⁸ adults
   <chr>    <dbl>   <dbl>   <dbl> <chr>     <dbl>   <dbl>   <dbl>   <dbl>  <dbl>
 1 Resor…       0     342    2015 July         27       1       0       0      2
 2 Resor…       0     737    2015 July         27       1       0       0      2
 3 Resor…       0       7    2015 July         27       1       0       1      1
 4 Resor…       0      13    2015 July         27       1       0       1      1
 5 Resor…       0      14    2015 July         27       1       0       2      2
 6 Resor…       0      14    2015 July         27       1       0       2      2
 7 Resor…       0       0    2015 July         27       1       0       2      2
 8 Resor…       0       9    2015 July         27       1       0       2      2
 9 Resor…       1      85    2015 July         27       1       0       3      2
10 Resor…       1      75    2015 July         27       1       0       3      2
# … with 119,380 more rows, 22 more variables: children <dbl>, babies <dbl>,
#   meal <chr>, country <chr>, market_segment <chr>,
#   distribution_channel <chr>, is_repeated_guest <dbl>,
#   previous_cancellations <dbl>, previous_bookings_not_canceled <dbl>,
#   reserved_room_type <chr>, assigned_room_type <chr>, booking_changes <dbl>,
#   deposit_type <chr>, agent <chr>, company <chr>, days_in_waiting_list <dbl>,
#   customer_type <chr>, adr <dbl>, required_car_parking_spaces <dbl>, …
…
After removing the rows which has NULL values in country coulmn as this is irrelevant to our analysis.

# Removing Null values
HotelBookings_csv <- HotelBookings_csv %>% 
  filter(!(country == "NULL"))

As arrival year, month, date has been stored in three different columns we can combine the arrival date in year, month and the date into one single field and name it as the arrival date. Also, I feel arrival_date_week_number is irrelevant for my analysis as we can take a good guess of the week number from the new field arrival date.

# Remove Columns by Index
HotelBookings_csv <- HotelBookings_csv[,-6]
HotelBookings_csv

# A tibble: 118,902 × 31
   hotel  is_ca…¹ lead_…² arriv…³ arriv…⁴ arriv…⁵ stays…⁶ stays…⁷ adults child…⁸
   <chr>    <dbl>   <dbl>   <dbl> <chr>     <dbl>   <dbl>   <dbl>  <dbl>   <dbl>
 1 Resor…       0     342    2015 July          1       0       0      2       0
 2 Resor…       0     737    2015 July          1       0       0      2       0
 3 Resor…       0       7    2015 July          1       0       1      1       0
 4 Resor…       0      13    2015 July          1       0       1      1       0
 5 Resor…       0      14    2015 July          1       0       2      2       0
 6 Resor…       0      14    2015 July          1       0       2      2       0
 7 Resor…       0       0    2015 July          1       0       2      2       0
 8 Resor…       0       9    2015 July          1       0       2      2       0
 9 Resor…       1      85    2015 July          1       0       3      2       0
10 Resor…       1      75    2015 July          1       0       3      2       0
# … with 118,892 more rows, 21 more variables: babies <dbl>, meal <chr>,
#   country <chr>, market_segment <chr>, distribution_channel <chr>,
#   is_repeated_guest <dbl>, previous_cancellations <dbl>,
#   previous_bookings_not_canceled <dbl>, reserved_room_type <chr>,
#   assigned_room_type <chr>, booking_changes <dbl>, deposit_type <chr>,
#   agent <chr>, company <chr>, days_in_waiting_list <dbl>,
#   customer_type <chr>, adr <dbl>, required_car_parking_spaces <dbl>, …
Are there any variables that require mutation to be usable in your analysis stream? For example, do you need to calculate new values in order to graph them? Can string values be represented numerically? Do you need to turn any variables into factors and reorder for ease of graphics and visualization?

As the data has been modified as per required I’ll go ahead and mutate it to have single field for arrivale date as mentioned above.

#Mutating the arrival date into a single field 

HotelBookings_csv_mutate <- HotelBookings_csv %>% 
  mutate(arrival_date = str_c(arrival_date_year, 
                              arrival_date_month, arrival_date_day_of_month, sep="/"),
         arrival_date = lubridate::ymd(arrival_date)) %>% 
  select(-c(arrival_date_year,arrival_date_month, arrival_date_day_of_month))

HotelBookings_csv_mutate

# A tibble: 118,902 × 29
   hotel     is_ca…¹ lead_…² stays…³ stays…⁴ adults child…⁵ babies meal  country
   <chr>       <dbl>   <dbl>   <dbl>   <dbl>  <dbl>   <dbl>  <dbl> <chr> <chr>  
 1 Resort H…       0     342       0       0      2       0      0 BB    PRT    
 2 Resort H…       0     737       0       0      2       0      0 BB    PRT    
 3 Resort H…       0       7       0       1      1       0      0 BB    GBR    
 4 Resort H…       0      13       0       1      1       0      0 BB    GBR    
 5 Resort H…       0      14       0       2      2       0      0 BB    GBR    
 6 Resort H…       0      14       0       2      2       0      0 BB    GBR    
 7 Resort H…       0       0       0       2      2       0      0 BB    PRT    
 8 Resort H…       0       9       0       2      2       0      0 FB    PRT    
 9 Resort H…       1      85       0       3      2       0      0 BB    PRT    
10 Resort H…       1      75       0       3      2       0      0 HB    PRT    
# … with 118,892 more rows, 19 more variables: market_segment <chr>,
#   distribution_channel <chr>, is_repeated_guest <dbl>,
#   previous_cancellations <dbl>, previous_bookings_not_canceled <dbl>,
#   reserved_room_type <chr>, assigned_room_type <chr>, booking_changes <dbl>,
#   deposit_type <chr>, agent <chr>, company <chr>, days_in_waiting_list <dbl>,
#   customer_type <chr>, adr <dbl>, required_car_parking_spaces <dbl>,
#   total_of_special_requests <dbl>, reservation_status <chr>, …
…
