Challenge 6
…
abc_poll ⭐⭐⭐

usa_hh ⭐⭐⭐

hotel_bookings ⭐⭐⭐⭐

air_bnb ⭐⭐⭐⭐⭐

dataset <- here("posts","_data","USA Households by Total Money Income, Race, and Hispanic Origin of Householder 1967 to 2019.xlsx") %>%
read_excel(skip=5, n_max = 351,
           col_names = c("Year", "Population", "del","Income_1", "Income_2", "Income_3", "Income_4","Income_5","Income_6","Income_7","Income_8","Income_9","Median_Income", "Median_error","Mean_Income", "Mean_error"))
dataset

# A tibble: 351 × 16
   Year    Popul…¹   del Incom…² Incom…³ Incom…⁴ Incom…⁵ Incom…⁶ Incom…⁷ Incom…⁸
   <chr>   <chr>   <dbl>   <dbl>   <dbl>   <dbl>   <dbl>   <dbl>   <dbl>   <dbl>
 1 ALL RA… <NA>       NA    NA      NA      NA      NA      NA      NA      NA  
 2 2019    128451    100     9.1     8       8.3    11.7    16.5    12.3    15.5
 3 2018    128579    100    10.1     8.8     8.7    12      17      12.5    15  
 4 2017 2  127669    100    10       9.1     9.2    12      16.4    12.4    14.7
 5 2017    127586    100    10.1     9.1     9.2    11.9    16.3    12.6    14.8
 6 2016    126224    100    10.4     9       9.2    12.3    16.7    12.2    15  
 7 2015    125819    100    10.6    10       9.6    12.1    16.1    12.4    14.9
 8 2014    124587    100    11.4    10.5     9.6    12.6    16.4    12.1    14  
 9 2013 3  123931    100    11.4    10.3     9.5    12.5    16.8    12      13.9
10 2013 4  122952    100    11.3    10.4     9.7    13.1    17      12.5    13.6
# … with 341 more rows, 6 more variables: Income_8 <dbl>, Income_9 <dbl>,
#   Median_Income <dbl>, Median_error <dbl>, Mean_Income <chr>,
#   Mean_error <chr>, and abbreviated variable names ¹​Population, ²​Income_1,
#   ³​Income_2, ⁴​Income_3, ⁵​Income_4, ⁶​Income_5, ⁷​Income_6, ⁸​Income_7
…
There are few unnecessary columns in the data like Total, which has to be deleted. A new column which represents the race has to mutated to the data. Superscripts have to be removed from the year column.

household <- dataset %>%
  mutate(Race = case_when(is.na(Population) ~ Year), .before = Year) %>% #Created a new column race
  fill(Race, .direction = "down") %>% #filled the value in the race column
  separate(Year, into=c("Year", "del"), sep=" ")%>% #Removing the extra characters in the Year column
  select(!contains("del")) %>% #deleting unecessary columns
  drop_na() #dropping null values if any

household$Race <- gsub('[0-9]+', '', household$Race) #Removing extra characters in the Race column

household

# A tibble: 339 × 16
   Race    Year  Popul…¹ Incom…² Incom…³ Incom…⁴ Incom…⁵ Incom…⁶ Incom…⁷ Incom…⁸
   <chr>   <chr> <chr>     <dbl>   <dbl>   <dbl>   <dbl>   <dbl>   <dbl>   <dbl>
 1 ALL RA… 2019  128451      9.1     8       8.3    11.7    16.5    12.3    15.5
 2 ALL RA… 2018  128579     10.1     8.8     8.7    12      17      12.5    15  
 3 ALL RA… 2017  127669     10       9.1     9.2    12      16.4    12.4    14.7
 4 ALL RA… 2017  127586     10.1     9.1     9.2    11.9    16.3    12.6    14.8
 5 ALL RA… 2016  126224     10.4     9       9.2    12.3    16.7    12.2    15  
 6 ALL RA… 2015  125819     10.6    10       9.6    12.1    16.1    12.4    14.9
 7 ALL RA… 2014  124587     11.4    10.5     9.6    12.6    16.4    12.1    14  
 8 ALL RA… 2013  123931     11.4    10.3     9.5    12.5    16.8    12      13.9
 9 ALL RA… 2013  122952     11.3    10.4     9.7    13.1    17      12.5    13.6
10 ALL RA… 2012  122459     11.4    10.6    10.1    12.5    17.4    12      13.9
# … with 329 more rows, 6 more variables: Income_8 <dbl>, Income_9 <dbl>,
#   Median_Income <dbl>, Median_error <dbl>, Mean_Income <chr>,
#   Mean_error <chr>, and abbreviated variable names ¹​Population, ²​Income_1,
#   ³​Income_2, ⁴​Income_3, ⁵​Income_4, ⁶​Income_5, ⁷​Income_6, ⁸​Income_7
…
