Challenge 3
…
eggs_tidy.csv ⭐⭐ or organicpoultry.xls ⭐⭐⭐

australian_marriage*.xlsx ⭐⭐⭐

USA Households*.xlsx ⭐⭐⭐⭐

sce_labor_chart_data_public.csv 🌟🌟🌟🌟🌟

Code

eggs_tidy <- read_csv('_data/eggs_tidy.csv')
eggs_tidy

# A tibble: 120 × 6
   month      year large_half_dozen large_dozen extra_large_half_dozen extra_l…¹
   <chr>     <dbl>            <dbl>       <dbl>                  <dbl>     <dbl>
 1 January    2004             126         230                    132       230 
 2 February   2004             128.        226.                   134.      230 
 3 March      2004             131         225                    137       230 
 4 April      2004             131         225                    137       234.
 5 May        2004             131         225                    137       236 
 6 June       2004             134.        231.                   137       241 
 7 July       2004             134.        234.                   137       241 
 8 August     2004             134.        234.                   137       241 
 9 September  2004             130.        234.                   136.      241 
10 October    2004             128.        234.                   136.      241 
# … with 110 more rows, and abbreviated variable name ¹​extra_large_dozen
…
Code

eggs_longer <- eggs2%>%
  pivot_longer(cols=contains("large"),
               names_to = c("size_of_the_egg", "quantity_of_the_eggs"),
               names_sep="_",
               values_to = "price_of_the_eggs"
  )
eggs_longer

# A tibble: 480 × 5
   month     year size_of_the_egg quantity_of_the_eggs price_of_the_eggs
   <chr>    <dbl> <chr>           <chr>                            <dbl>
 1 January   2004 Large           HalfDozen                         126 
 2 January   2004 Large           Dozen                             230 
 3 January   2004 ExtraLarge      HalfDozen                         132 
 4 January   2004 ExtraLarge      Dozen                             230 
 5 February  2004 Large           HalfDozen                         128.
 6 February  2004 Large           Dozen                             226.
 7 February  2004 ExtraLarge      HalfDozen                         134.
 8 February  2004 ExtraLarge      Dozen                             230 
 9 March     2004 Large           HalfDozen                         131 
10 March     2004 Large           Dozen                             225 
# … with 470 more rows
…
