Challenge 10
…
#function for plotting histogram
get_hist <- function(cols,colname) {
  title <- str_c("Histogram for ",colname)
  hist(cols, col = "purple", main = title, xlab = colname)
}

#calling the function read_data
db <- read_data("USA Households by Total Money Income, Race, and Hispanic Origin of Householder 1967 to 2019.xlsx","excel", 55, 5)

db #to print the data

# A tibble: 55 × 16
   ALL RACE…¹   ...2  ...3  ...4  ...5  ...6  ...7  ...8  ...9 ...10 ...11 ...12
   <chr>       <dbl> <dbl> <dbl> <dbl> <dbl> <dbl> <dbl> <dbl> <dbl> <dbl> <dbl>
 1 2019       128451   100   9.1   8     8.3  11.7  16.5  12.3  15.5   8.3  10.3
 2 2018       128579   100  10.1   8.8   8.7  12    17    12.5  15     7.2   8.8
 3 2017 2     127669   100  10     9.1   9.2  12    16.4  12.4  14.7   7.3   8.9
 4 2017       127586   100  10.1   9.1   9.2  11.9  16.3  12.6  14.8   7.5   8.5
 5 2016       126224   100  10.4   9     9.2  12.3  16.7  12.2  15     7.2   8  
 6 2015       125819   100  10.6  10     9.6  12.1  16.1  12.4  14.9   7.1   7.2
 7 2014       124587   100  11.4  10.5   9.6  12.6  16.4  12.1  14     6.6   6.8
 8 2013 3     123931   100  11.4  10.3   9.5  12.5  16.8  12    13.9   6.7   6.9
 9 2013 4     122952   100  11.3  10.4   9.7  13.1  17    12.5  13.6   6.3   6  
10 2012       122459   100  11.4  10.6  10.1  12.5  17.4  12    13.9   6.3   5.9
# … with 45 more rows, 4 more variables: ...13 <dbl>, ...14 <dbl>, ...15 <dbl>,
#   ...16 <dbl>, and abbreviated variable name ¹​`ALL RACES`
…
