Challenge 7
…
australian_marriage ⭐⭐

hotel_bookings ⭐⭐⭐

air_bnb ⭐⭐⭐

us_hh ⭐⭐⭐⭐

faostat ⭐⭐⭐⭐⭐

eggs_data <- read_csv('_data/eggs_tidy.csv')
eggs_data

# A tibble: 120 × 6
   month      year large_half_dozen large_dozen extra_large_half_dozen extra_l…¹
   <chr>     <dbl>            <dbl>       <dbl>                  <dbl>     <dbl>
 1 January    2004             126         230                    132       230 
 2 February   2004             128.        226.                   134.      230 
 3 March      2004             131         225                    137       230 
 4 April      2004             131         225                    137       234.
 5 May        2004             131         225                    137       236 
 6 June       2004             134.        231.                   137       241 
 7 July       2004             134.        234.                   137       241 
 8 August     2004             134.        234.                   137       241 
 9 September  2004             130.        234.                   136.      241 
10 October    2004             128.        234.                   136.      241 
# … with 110 more rows, and abbreviated variable name ¹​extra_large_dozen
…
#Renaming the column names 
eggs2<-rename(eggs_data,
        "Large_HalfDozen" = large_half_dozen, 
       "Large_Dozen" =  large_dozen,
       "ExtraLarge_HalfDozen"= extra_large_half_dozen, 
      "ExtraLarge_Dozen" =  extra_large_dozen )

eggs_longer <- eggs2%>%
  pivot_longer(cols=contains("large"),
               names_to = c("size_quantity_eggs"),
               values_to = "price_of_the_eggs"
  )
eggs_longer

# A tibble: 480 × 4
   month     year size_quantity_eggs   price_of_the_eggs
   <chr>    <dbl> <chr>                            <dbl>
 1 January   2004 Large_HalfDozen                   126 
 2 January   2004 Large_Dozen                       230 
 3 January   2004 ExtraLarge_HalfDozen              132 
 4 January   2004 ExtraLarge_Dozen                  230 
 5 February  2004 Large_HalfDozen                   128.
 6 February  2004 Large_Dozen                       226.
 7 February  2004 ExtraLarge_HalfDozen              134.
 8 February  2004 ExtraLarge_Dozen                  230 
 9 March     2004 Large_HalfDozen                   131 
10 March     2004 Large_Dozen                       225 
# … with 470 more rows

Will be mutating month and year to have a confined dataset to plot visualizations with multiple dimensions

Document your work here.

eggs_mutate <- eggs_longer %>% 
  mutate(purchase_date = str_c(month,year, sep="/"),
         purchase_date = lubridate::my(purchase_date)) %>% 
  select(-c(month,year))

eggs_mutate

# A tibble: 480 × 3
   size_quantity_eggs   price_of_the_eggs purchase_date
   <chr>                            <dbl> <date>       
 1 Large_HalfDozen                   126  2004-01-01   
 2 Large_Dozen                       230  2004-01-01   
 3 ExtraLarge_HalfDozen              132  2004-01-01   
 4 ExtraLarge_Dozen                  230  2004-01-01   
 5 Large_HalfDozen                   128. 2004-02-01   
 6 Large_Dozen                       226. 2004-02-01   
 7 ExtraLarge_HalfDozen              134. 2004-02-01   
 8 ExtraLarge_Dozen                  230  2004-02-01   
 9 Large_HalfDozen                   131  2004-03-01   
10 Large_Dozen                       225  2004-03-01   
# … with 470 more rows
…
eggs_longer2 <- eggs2%>%
  pivot_longer(cols=contains("large"),
               names_to = c("size_of_the_egg", "quantity_of_the_eggs"),
               names_sep="_",
               values_to = "price_of_the_eggs"
  )
eggs_longer2

# A tibble: 480 × 5
   month     year size_of_the_egg quantity_of_the_eggs price_of_the_eggs
   <chr>    <dbl> <chr>           <chr>                            <dbl>
 1 January   2004 Large           HalfDozen                         126 
 2 January   2004 Large           Dozen                             230 
 3 January   2004 ExtraLarge      HalfDozen                         132 
 4 January   2004 ExtraLarge      Dozen                             230 
 5 February  2004 Large           HalfDozen                         128.
 6 February  2004 Large           Dozen                             226.
 7 February  2004 ExtraLarge      HalfDozen                         134.
 8 February  2004 ExtraLarge      Dozen                             230 
 9 March     2004 Large           HalfDozen                         131 
10 March     2004 Large           Dozen                             225 
# … with 470 more rows

eggs_mutate2 <- eggs_longer2 %>% 
  mutate(purchase_date = str_c(month,year, sep="/"),
         purchase_date = lubridate::my(purchase_date)) %>% 
  select(-c(month,year))

eggs_mutate22 <- eggs_mutate2
eggs_mutate22$quantity_of_the_eggs[eggs_mutate22$quantity_of_the_eggs == "HalfDozen"] <- "2"
eggs_mutate22$quantity_of_the_eggs[eggs_mutate22$quantity_of_the_eggs == "Dozen"] <- "4"
eggs_mutate22

# A tibble: 480 × 4
   size_of_the_egg quantity_of_the_eggs price_of_the_eggs purchase_date
   <chr>           <chr>                            <dbl> <date>       
 1 Large           2                                 126  2004-01-01   
 2 Large           4                                 230  2004-01-01   
 3 ExtraLarge      2                                 132  2004-01-01   
 4 ExtraLarge      4                                 230  2004-01-01   
 5 Large           2                                 128. 2004-02-01   
 6 Large           4                                 226. 2004-02-01   
 7 ExtraLarge      2                                 134. 2004-02-01   
 8 ExtraLarge      4                                 230  2004-02-01   
 9 Large           2                                 131  2004-03-01   
10 Large           4                                 225  2004-03-01   
# … with 470 more rows
…
