Challenge 9
…
Analysis for Airbnb in New York City dataset:

“AB_NYC_2019.csv” dataset consists of a list of airbnb’s in 5 boroughs in New York City. There are 48895 rows and 16 columns. Each column represents specific data about the airbnb like location, owner, rating, etc.

Calling the above defined functions for further analysis

#calling the function read_data (csv file)
data <- read_data("AB_NYC_2019.csv","csv")

data #printing the data

# A tibble: 48,895 × 16
      id name      host_id host_…¹ neigh…² neigh…³ latit…⁴ longi…⁵ room_…⁶ price
   <dbl> <chr>       <dbl> <chr>   <chr>   <chr>     <dbl>   <dbl> <chr>   <dbl>
 1  2539 Clean & …    2787 John    Brookl… Kensin…    40.6   -74.0 Privat…   149
 2  2595 Skylit M…    2845 Jennif… Manhat… Midtown    40.8   -74.0 Entire…   225
 3  3647 THE VILL…    4632 Elisab… Manhat… Harlem     40.8   -73.9 Privat…   150
 4  3831 Cozy Ent…    4869 LisaRo… Brookl… Clinto…    40.7   -74.0 Entire…    89
 5  5022 Entire A…    7192 Laura   Manhat… East H…    40.8   -73.9 Entire…    80
 6  5099 Large Co…    7322 Chris   Manhat… Murray…    40.7   -74.0 Entire…   200
 7  5121 BlissArt…    7356 Garon   Brookl… Bedfor…    40.7   -74.0 Privat…    60
 8  5178 Large Fu…    8967 Shunic… Manhat… Hell's…    40.8   -74.0 Privat…    79
 9  5203 Cozy Cle…    7490 MaryEl… Manhat… Upper …    40.8   -74.0 Privat…    79
10  5238 Cute & C…    7549 Ben     Manhat… Chinat…    40.7   -74.0 Entire…   150
# … with 48,885 more rows, 6 more variables: minimum_nights <dbl>,
#   number_of_reviews <dbl>, last_review <date>, reviews_per_month <dbl>,
#   calculated_host_listings_count <dbl>, availability_365 <dbl>, and
#   abbreviated variable names ¹​host_name, ²​neighbourhood_group,
#   ³​neighbourhood, ⁴​latitude, ⁵​longitude, ⁶​room_type
…
Analysis for USA households dataset

This dataset describes the income statistics of various races over the years. The data shows what percentage of people fall under each income category i.e ranging from under $15,000 to $200,000 per year. The mean and median of the income is also calculated in the columns 13 and 15. The statistics are calculated all races combine and also separate for different races.

For this analysis considering only “All Race” data. Calling various function to get the analysis

#calling the function read_data
db <- read_data("USA Households by Total Money Income, Race, and Hispanic Origin of Householder 1967 to 2019.xlsx","excel", 55, 5)

db #to print the data

# A tibble: 55 × 16
   ALL RACE…¹   ...2  ...3  ...4  ...5  ...6  ...7  ...8  ...9 ...10 ...11 ...12
   <chr>       <dbl> <dbl> <dbl> <dbl> <dbl> <dbl> <dbl> <dbl> <dbl> <dbl> <dbl>
 1 2019       128451   100   9.1   8     8.3  11.7  16.5  12.3  15.5   8.3  10.3
 2 2018       128579   100  10.1   8.8   8.7  12    17    12.5  15     7.2   8.8
 3 2017 2     127669   100  10     9.1   9.2  12    16.4  12.4  14.7   7.3   8.9
 4 2017       127586   100  10.1   9.1   9.2  11.9  16.3  12.6  14.8   7.5   8.5
 5 2016       126224   100  10.4   9     9.2  12.3  16.7  12.2  15     7.2   8  
 6 2015       125819   100  10.6  10     9.6  12.1  16.1  12.4  14.9   7.1   7.2
 7 2014       124587   100  11.4  10.5   9.6  12.6  16.4  12.1  14     6.6   6.8
 8 2013 3     123931   100  11.4  10.3   9.5  12.5  16.8  12    13.9   6.7   6.9
 9 2013 4     122952   100  11.3  10.4   9.7  13.1  17    12.5  13.6   6.3   6  
10 2012       122459   100  11.4  10.6  10.1  12.5  17.4  12    13.9   6.3   5.9
# … with 45 more rows, 4 more variables: ...13 <dbl>, ...14 <dbl>, ...15 <dbl>,
#   ...16 <dbl>, and abbreviated variable name ¹​`ALL RACES`
…
