Challenge 8
…
Read in datasets and describe them

I have chosen the “snl_seasons” dataset and the “snl_casts” dataset. The seasons dataset has information about each season of SNL including its year, first and last episode dates, and number of episodes. THe casts dataset has information about each of the cast members of SNL, including actor/actress name, season ID, first and last episode they appeared in, number of episodes they appeared in, and the fraction of the season they appeared in.

Code

seasons <- here("posts","_data","snl_seasons.csv")%>%
  read_csv()

casts <- here("posts","_data","snl_casts.csv")%>%
  read_csv()

seasons

# A tibble: 46 × 5
     sid  year first_epid last_epid n_episodes
   <dbl> <dbl>      <dbl>     <dbl>      <dbl>
 1     1  1975   19751011  19760731         24
 2     2  1976   19760918  19770521         22
 3     3  1977   19770924  19780520         20
 4     4  1978   19781007  19790526         20
 5     5  1979   19791013  19800524         20
 6     6  1980   19801115  19810411         13
 7     7  1981   19811003  19820522         20
 8     8  1982   19820925  19830514         20
 9     9  1983   19831008  19840512         19
10    10  1984   19841006  19850413         17
# … with 36 more rows
…
Code

casts

# A tibble: 614 × 8
   aid                sid featured first_epid last_epid update…¹ n_epi…² seaso…³
   <chr>            <dbl> <lgl>         <dbl>     <dbl> <lgl>      <dbl>   <dbl>
 1 A. Whitney Brown    11 TRUE       19860222        NA FALSE          8   0.444
 2 A. Whitney Brown    12 TRUE             NA        NA FALSE         20   1    
 3 A. Whitney Brown    13 TRUE             NA        NA FALSE         13   1    
 4 A. Whitney Brown    14 TRUE             NA        NA FALSE         20   1    
 5 A. Whitney Brown    15 TRUE             NA        NA FALSE         20   1    
 6 A. Whitney Brown    16 TRUE             NA        NA FALSE         20   1    
 7 Alan Zweibel         5 TRUE       19800409        NA FALSE          5   0.25 
 8 Sasheer Zamata      39 TRUE       20140118        NA FALSE         11   0.524
 9 Sasheer Zamata      40 TRUE             NA        NA FALSE         21   1    
10 Sasheer Zamata      41 FALSE            NA        NA FALSE         21   1    
# … with 604 more rows, and abbreviated variable names ¹​update_anchor,
#   ²​n_episodes, ³​season_fraction
…
Joining datasets

Code

snl_join <- left_join(seasons, casts, by = "sid" )
snl_join

# A tibble: 614 × 12
     sid  year first_epi…¹ last_…² n_epi…³ aid   featu…⁴ first…⁵ last_…⁶ updat…⁷
   <dbl> <dbl>       <dbl>   <dbl>   <dbl> <chr> <lgl>     <dbl>   <dbl> <lgl>  
 1     1  1975    19751011  1.98e7      24 Gild… FALSE        NA NA      FALSE  
 2     1  1975    19751011  1.98e7      24 Mich… FALSE        NA  1.98e7 FALSE  
 3     1  1975    19751011  1.98e7      24 Lara… FALSE        NA NA      FALSE  
 4     1  1975    19751011  1.98e7      24 Garr… FALSE        NA NA      FALSE  
 5     1  1975    19751011  1.98e7      24 Jane… FALSE        NA NA      FALSE  
 6     1  1975    19751011  1.98e7      24 Geor… FALSE        NA  1.98e7 FALSE  
 7     1  1975    19751011  1.98e7      24 Chev… FALSE        NA NA      TRUE   
 8     1  1975    19751011  1.98e7      24 John… FALSE        NA NA      FALSE  
 9     1  1975    19751011  1.98e7      24 Dan … FALSE        NA NA      FALSE  
10     2  1976    19760918  1.98e7      22 Gild… FALSE        NA NA      FALSE  
# … with 604 more rows, 2 more variables: n_episodes.y <dbl>,
#   season_fraction <dbl>, and abbreviated variable names ¹​first_epid.x,
#   ²​last_epid.x, ³​n_episodes.x, ⁴​featured, ⁵​first_epid.y, ⁶​last_epid.y,
#   ⁷​update_anchor
…
