Challenge 1
…
##Arrange dataset based on the total number of employees per state

Code

railroad%>%
  arrange(desc(total_employees))%>%
  select(total_employees,state, county) %>%
  group_by(state) %>%
    slice(1)%>%
  arrange(desc(total_employees))

# A tibble: 53 × 3
# Groups:   state [53]
   total_employees state county          
             <int> <chr> <chr>           
 1            8207 IL    COOK            
 2            4235 TX    TARRANT         
 3            3797 NE    DOUGLAS         
 4            3685 NY    SUFFOLK         
 5            3249 VA    INDEPENDENT CITY
 6            3073 FL    DUVAL           
 7            2888 CA    SAN BERNARDINO  
 8            2055 MO    JACKSON         
 9            1999 IN    LAKE            
10            1649 PA    PHILADELPHIA    
# … with 43 more rows
…
  mean.employees min.employees max.employees sd.employees
1       87.17816             1          8207     283.6359

##Find the mean of total_employees per state

Code

railroad %>%
  group_by(state) %>%
  select(state, total_employees) %>%
  summarise_all(mean, na.rm=TRUE)%>%
  arrange(desc(total_employees))

# A tibble: 53 × 2
   state total_employees
   <chr>           <dbl>
 1 DE               498.
 2 NJ               397.
 3 CT               324 
 4 MA               282.
 5 NY               280.
 6 DC               279 
 7 CA               239.
 8 AZ               210.
 9 PA               196.
10 MD               196.
# … with 43 more rows

##Find the mean of total_employees per county Finding the mean and arranging the dataset by the total number of employees indicated that Delaware has the highest number of employees per station compared to the rest of the states. However, Texas has the most employees per state.

Code

railroad%>%
  group_by(state)%>%
  select(total_employees)%>%
  summarise_all(sum, na.rm = TRUE)%>%
arrange(desc(total_employees))

# A tibble: 53 × 2
   state total_employees
   <chr>           <int>
 1 TX              19839
 2 IL              19131
 3 NY              17050
 4 NE              13176
 5 CA              13137
 6 PA              12769
 7 OH               9056
 8 GA               8605
 9 IN               8537
10 MO               8419
# … with 43 more rows
…
