Challenge 2
…
Read in one (or more) of the following data sets, available in the posts/_data folder, using the correct R package and command.

railroad*.csv or StateCounty2012.xlsx ⭐

FAOstat*.csv ⭐⭐⭐

hotel_bookings ⭐⭐⭐⭐

Code

livestock <- here("posts","_data","FAOSTAT_livestock.csv")%>%
  read_csv()
livestock

# A tibble: 82,116 × 14
   Domain Cod…¹ Domain Area …² Area  Eleme…³ Element Item …⁴ Item  Year …⁵  Year
   <chr>        <chr>    <dbl> <chr>   <dbl> <chr>     <dbl> <chr>   <dbl> <dbl>
 1 QA           Live …       2 Afgh…    5111 Stocks     1107 Asses    1961  1961
 2 QA           Live …       2 Afgh…    5111 Stocks     1107 Asses    1962  1962
 3 QA           Live …       2 Afgh…    5111 Stocks     1107 Asses    1963  1963
 4 QA           Live …       2 Afgh…    5111 Stocks     1107 Asses    1964  1964
 5 QA           Live …       2 Afgh…    5111 Stocks     1107 Asses    1965  1965
 6 QA           Live …       2 Afgh…    5111 Stocks     1107 Asses    1966  1966
 7 QA           Live …       2 Afgh…    5111 Stocks     1107 Asses    1967  1967
 8 QA           Live …       2 Afgh…    5111 Stocks     1107 Asses    1968  1968
 9 QA           Live …       2 Afgh…    5111 Stocks     1107 Asses    1969  1969
10 QA           Live …       2 Afgh…    5111 Stocks     1107 Asses    1970  1970
# … with 82,106 more rows, 4 more variables: Unit <chr>, Value <dbl>,
#   Flag <chr>, `Flag Description` <chr>, and abbreviated variable names
#   ¹​`Domain Code`, ²​`Area Code`, ³​`Element Code`, ⁴​`Item Code`, ⁵​`Year Code`
…
Code

livestock %>% 
  select(Area) %>%
  n_distinct(.)

[1] 253

Code

livestock %>% 
  select(Area) %>%
  distinct()

# A tibble: 253 × 1
   Area               
   <chr>              
 1 Afghanistan        
 2 Albania            
 3 Algeria            
 4 American Samoa     
 5 Angola             
 6 Antigua and Barbuda
 7 Argentina          
 8 Armenia            
 9 Aruba              
10 Australia          
# … with 243 more rows
…
Code

livestock %>% 
  select(Year) %>%
  n_distinct(.)

[1] 58

Code

livestock %>% 
  select(Year) %>%
  distinct()

# A tibble: 58 × 1
    Year
   <dbl>
 1  1961
 2  1962
 3  1963
 4  1964
 5  1965
 6  1966
 7  1967
 8  1968
 9  1969
10  1970
# … with 48 more rows
…
