Challenge 4
…
poultry_tidy.csv⭐⭐

FedFundsRate.csv⭐⭐⭐

hotel_bookings.csv⭐⭐⭐⭐

debt_in_trillions ⭐⭐⭐⭐⭐

Code

dataset <- read_csv("_data/hotel_bookings.csv") #reading the data from csv file
dataset

# A tibble: 119,390 × 32
   hotel  is_ca…¹ lead_…² arriv…³ arriv…⁴ arriv…⁵ arriv…⁶ stays…⁷ stays…⁸ adults
   <chr>    <dbl>   <dbl>   <dbl> <chr>     <dbl>   <dbl>   <dbl>   <dbl>  <dbl>
 1 Resor…       0     342    2015 July         27       1       0       0      2
 2 Resor…       0     737    2015 July         27       1       0       0      2
 3 Resor…       0       7    2015 July         27       1       0       1      1
 4 Resor…       0      13    2015 July         27       1       0       1      1
 5 Resor…       0      14    2015 July         27       1       0       2      2
 6 Resor…       0      14    2015 July         27       1       0       2      2
 7 Resor…       0       0    2015 July         27       1       0       2      2
 8 Resor…       0       9    2015 July         27       1       0       2      2
 9 Resor…       1      85    2015 July         27       1       0       3      2
10 Resor…       1      75    2015 July         27       1       0       3      2
# … with 119,380 more rows, 22 more variables: children <dbl>, babies <dbl>,
#   meal <chr>, country <chr>, market_segment <chr>,
#   distribution_channel <chr>, is_repeated_guest <dbl>,
#   previous_cancellations <dbl>, previous_bookings_not_canceled <dbl>,
#   reserved_room_type <chr>, assigned_room_type <chr>, booking_changes <dbl>,
#   deposit_type <chr>, agent <chr>, company <chr>, days_in_waiting_list <dbl>,
#   customer_type <chr>, adr <dbl>, required_car_parking_spaces <dbl>, …
…
Briefly describe the data

This dataset describes the information of the reservations made in Resort Hotel and City Hotel. There are 119390 rows and 32 columns. Each columns represents various data such as for what dates and what hotel the booking was made, whether reservation is called or not and if the payment is made or not etc.

Tidy Data (as needed)

Is your data already tidy, or is there work to be done? Be sure to anticipate your end result to provide a sanity check, and document your work here.

The data needs to be cleaned. The date is spread across in multiple columns. If is there in a single column it;’ll will be easy to calculate stats. Can also calculate the date with lead time and date of arrival columns.

Code

select(dataset, 3:7 )

# A tibble: 119,390 × 5
   lead_time arrival_date_year arrival_date_month arrival_date_week_nu…¹ arriv…²
       <dbl>             <dbl> <chr>                               <dbl>   <dbl>
 1       342              2015 July                                   27       1
 2       737              2015 July                                   27       1
 3         7              2015 July                                   27       1
 4        13              2015 July                                   27       1
 5        14              2015 July                                   27       1
 6        14              2015 July                                   27       1
 7         0              2015 July                                   27       1
 8         9              2015 July                                   27       1
 9        85              2015 July                                   27       1
10        75              2015 July                                   27       1
# … with 119,380 more rows, and abbreviated variable names
#   ¹​arrival_date_week_number, ²​arrival_date_day_of_month
…
The country column is placed in the 14th place, it should be moved up to 2nd place i.e after the hotel column. Created a new column arrival_date by getting the date from “arrival_date_day_of_month”, “arrival_date_month”,“arrival_date_year” columns. Removing these 3 columns and moving the arrival date column to column after “lead_time”. Creating the new column booking_date to know the date of booking with the information from columns lead_time and arrival_date. After tidying up the data, total columns remaining are 29

Code

#tidying the dataset
tidy_data <- dataset %>%
  relocate("country",.after = "hotel") %>% #relocating the country column
  mutate(arrival_date = (str_c(arrival_date_day_of_month,arrival_date_month,arrival_date_year, sep = "/")), arrival_date = dmy(arrival_date), .after = lead_time) %>% #variable for arrival date
  mutate(booking_date = arrival_date-days(lead_time), .after = lead_time) %>% #variable to know the date of booking
  select(-"lead_time")
tidy_data <- tidy_data[,-6:-9] #removed columns with arrival date information
tidy_data

# A tibble: 119,390 × 29
   hotel    country is_ca…¹ booking_…² arrival_…³ stays…⁴ stays…⁵ adults child…⁶
   <chr>    <chr>     <dbl> <date>     <date>       <dbl>   <dbl>  <dbl>   <dbl>
 1 Resort … PRT           0 2014-07-24 2015-07-01       0       0      2       0
 2 Resort … PRT           0 2013-06-24 2015-07-01       0       0      2       0
 3 Resort … GBR           0 2015-06-24 2015-07-01       0       1      1       0
 4 Resort … GBR           0 2015-06-18 2015-07-01       0       1      1       0
 5 Resort … GBR           0 2015-06-17 2015-07-01       0       2      2       0
 6 Resort … GBR           0 2015-06-17 2015-07-01       0       2      2       0
 7 Resort … PRT           0 2015-07-01 2015-07-01       0       2      2       0
 8 Resort … PRT           0 2015-06-22 2015-07-01       0       2      2       0
 9 Resort … PRT           1 2015-04-07 2015-07-01       0       3      2       0
10 Resort … PRT           1 2015-04-17 2015-07-01       0       3      2       0
# … with 119,380 more rows, 20 more variables: babies <dbl>, meal <chr>,
#   market_segment <chr>, distribution_channel <chr>, is_repeated_guest <dbl>,
#   previous_cancellations <dbl>, previous_bookings_not_canceled <dbl>,
#   reserved_room_type <chr>, assigned_room_type <chr>, booking_changes <dbl>,
#   deposit_type <chr>, agent <chr>, company <chr>, days_in_waiting_list <dbl>,
#   customer_type <chr>, adr <dbl>, required_car_parking_spaces <dbl>,
#   total_of_special_requests <dbl>, reservation_status <chr>, …
…
