Challenge 7 Solutions
…
R Graph Gallery is a good starting point for thinking about what information is conveyed in standard graph types, and includes example R code. And anyone not familiar with Edward Tufte should check out his fantastic books and courses on data visualizaton.

(be sure to only include the category tags for the data you use!)

Hotel Bookings

Read in and clean the data

bookings_orig<- here("posts","_data","hotel_bookings.csv") %>%
  read_csv()

select(bookings_orig, starts_with("arrival"))

# A tibble: 119,390 × 4
   arrival_date_year arrival_date_month arrival_date_week_number arrival_date_…¹
               <dbl> <chr>                                 <dbl>           <dbl>
 1              2015 July                                     27               1
 2              2015 July                                     27               1
 3              2015 July                                     27               1
 4              2015 July                                     27               1
 5              2015 July                                     27               1
 6              2015 July                                     27               1
 7              2015 July                                     27               1
 8              2015 July                                     27               1
 9              2015 July                                     27               1
10              2015 July                                     27               1
# … with 119,380 more rows, and abbreviated variable name
#   ¹​arrival_date_day_of_month

bookings<-bookings_orig%>%
  mutate(date_arrival = str_c(arrival_date_day_of_month,
                              arrival_date_month,
                              arrival_date_year, sep="/"),
         date_arrival = dmy(date_arrival))%>%
  select(-starts_with("arrival"))
bookings

# A tibble: 119,390 × 29
   hotel     is_ca…¹ lead_…² stays…³ stays…⁴ adults child…⁵ babies meal  country
   <chr>       <dbl>   <dbl>   <dbl>   <dbl>  <dbl>   <dbl>  <dbl> <chr> <chr>  
 1 Resort H…       0     342       0       0      2       0      0 BB    PRT    
 2 Resort H…       0     737       0       0      2       0      0 BB    PRT    
 3 Resort H…       0       7       0       1      1       0      0 BB    GBR    
 4 Resort H…       0      13       0       1      1       0      0 BB    GBR    
 5 Resort H…       0      14       0       2      2       0      0 BB    GBR    
 6 Resort H…       0      14       0       2      2       0      0 BB    GBR    
 7 Resort H…       0       0       0       2      2       0      0 BB    PRT    
 8 Resort H…       0       9       0       2      2       0      0 FB    PRT    
 9 Resort H…       1      85       0       3      2       0      0 BB    PRT    
10 Resort H…       1      75       0       3      2       0      0 HB    PRT    
# … with 119,380 more rows, 19 more variables: market_segment <chr>,
#   distribution_channel <chr>, is_repeated_guest <dbl>,
#   previous_cancellations <dbl>, previous_bookings_not_canceled <dbl>,
#   reserved_room_type <chr>, assigned_room_type <chr>, booking_changes <dbl>,
#   deposit_type <chr>, agent <chr>, company <chr>, days_in_waiting_list <dbl>,
#   customer_type <chr>, adr <dbl>, required_car_parking_spaces <dbl>,
#   total_of_special_requests <dbl>, reservation_status <chr>, …

Visualization with multiple dimensions

Previously, we viusalized the variation in number of bookings across time, split by the type of hotel (City vs. Resort).

bookings_month_hotel_n <- bookings %>%
  mutate(month=floor_date(date_arrival,unit="month")) %>%
  group_by(month, hotel) %>%
  summarise(n=n()) %>%
  ungroup()
bookings_month_hotel_n

# A tibble: 52 × 3
   month      hotel            n
   <date>     <chr>        <int>
 1 2015-07-01 City Hotel    1398
 2 2015-07-01 Resort Hotel  1378
 3 2015-08-01 City Hotel    2480
 4 2015-08-01 Resort Hotel  1409
 5 2015-09-01 City Hotel    3529
 6 2015-09-01 Resort Hotel  1585
 7 2015-10-01 City Hotel    3386
 8 2015-10-01 Resort Hotel  1571
 9 2015-11-01 City Hotel    1235
10 2015-11-01 Resort Hotel  1105
# … with 42 more rows
…
Below, we recode meal to make the labels more informative, and then use count() to compute the number of meal bookings for each hotel across time.

bookings_month_hotel_meal_n <- bookings %>%
  mutate(month=floor_date(date_arrival,unit="month"),
         meal=recode(meal,
                     BB="Bed and Breakfast",
                     FB="Full board",
                     HB="Half board",
                     SC="Undefined"),
         across(c(hotel, meal),as.factor)) %>%
  count(month, hotel, meal,.drop=F) # ensures 0 is counted
bookings_month_hotel_meal_n

# A tibble: 208 × 4
   month      hotel        meal                  n
   <date>     <fct>        <fct>             <int>
 1 2015-07-01 City Hotel   Bed and Breakfast  1071
 2 2015-07-01 City Hotel   Full board            0
 3 2015-07-01 City Hotel   Half board          312
 4 2015-07-01 City Hotel   Undefined            15
 5 2015-07-01 Resort Hotel Bed and Breakfast   989
 6 2015-07-01 Resort Hotel Full board           69
 7 2015-07-01 Resort Hotel Half board          320
 8 2015-07-01 Resort Hotel Undefined             0
 9 2015-08-01 City Hotel   Bed and Breakfast  1881
10 2015-08-01 City Hotel   Full board            0
# … with 198 more rows
…
