Challenge 2 Instructions
…
# A tibble: 1 × 1
  total_employees
            <dbl>
1               8

Code

#sum of total employees of each state
railroad %>%
  group_by(state) %>%
  select_all() %>%
  summarise(sum_total_employees = sum(total_employees)) %>%
  arrange(desc(sum_total_employees), .by_group=FALSE)

# A tibble: 53 × 2
   state sum_total_employees
   <chr>               <dbl>
 1 TX                  19839
 2 IL                  19131
 3 NY                  17050
 4 NE                  13176
 5 CA                  13137
 6 PA                  12769
 7 OH                   9056
 8 GA                   8605
 9 IN                   8537
10 MO                   8419
# … with 43 more rows

Code

#mean of total employees of each state
railroad %>%
  group_by(state) %>%
  select_all() %>%
  summarise(mean_total_employees = mean(total_employees)) %>%
  arrange(desc(mean_total_employees), .by_group=FALSE)

# A tibble: 53 × 2
   state mean_total_employees
   <chr>                <dbl>
 1 DE                    498.
 2 NJ                    397.
 3 CT                    324 
 4 MA                    282.
 5 NY                    280.
 6 DC                    279 
 7 CA                    239.
 8 AZ                    210.
 9 PA                    196.
10 MD                    196.
# … with 43 more rows

Code

#median of total employees of each state
railroad %>%
  group_by(state) %>%
  select_all() %>%
  summarise(median_total_employees = median(total_employees))%>%
  arrange(desc(median_total_employees), .by_group=FALSE)

# A tibble: 53 × 2
   state median_total_employees
   <chr>                  <dbl>
 1 NJ                      296 
 2 DC                      279 
 3 MA                      271 
 4 DE                      158 
 5 CT                      125 
 6 MD                      108.
 7 AZ                       94 
 8 PA                       85 
 9 NY                       71 
10 CA                       61 
# … with 43 more rows

Code

#min of total employees of each state
railroad %>%
  group_by(state) %>%
  select_all() %>%
  summarise(min_total_employees = min(total_employees)) %>%
  arrange(desc(min_total_employees), .by_group=FALSE)

# A tibble: 53 × 2
   state min_total_employees
   <chr>               <dbl>
 1 DC                    279
 2 DE                     62
 3 MA                     44
 4 CT                     26
 5 NJ                     19
 6 RI                      8
 7 NY                      5
 8 AZ                      3
 9 IN                      3
10 OH                      3
# … with 43 more rows

Code

#max of total employees of each state
railroad %>%
  group_by(state) %>%
  select_all() %>%
  summarise(max_total_employees = max(total_employees)) %>%
  arrange(desc(max_total_employees), .by_group=FALSE)

# A tibble: 53 × 2
   state max_total_employees
   <chr>               <dbl>
 1 IL                   8207
 2 TX                   4235
 3 NE                   3797
 4 NY                   3685
 5 VA                   3249
 6 FL                   3073
 7 CA                   2888
 8 MO                   2055
 9 IN                   1999
10 PA                   1649
# … with 43 more rows
…
