Homework 2
…
mutated.data %>%
  arrange(arrival_date_month)

# A tibble: 119,390 × 32
   hotel  is_ca…¹ lead_…² arriv…³ arriv…⁴ arriv…⁵ arriv…⁶ stays…⁷ stays…⁸ adults
   <chr>    <dbl>   <dbl>   <dbl>   <dbl>   <dbl>   <dbl>   <dbl>   <dbl>  <dbl>
 1 Resor…       0     109    2016       1       1       1       0       1      2
 2 Resor…       0     109    2016       1       1       1       0       1      2
 3 Resor…       1       2    2016       1       1       1       0       1      2
 4 Resor…       0      88    2016       1       1       1       0       2      2
 5 Resor…       1      20    2016       1       1       1       0       2      2
 6 Resor…       1      76    2016       1       1       1       1       2      2
 7 Resor…       0      88    2016       1       1       1       0       2      2
 8 Resor…       1     113    2016       1       1       2       0       1      2
 9 Resor…       1     113    2016       1       1       2       0       1      2
10 Resor…       1     113    2016       1       1       2       0       1      2
# … with 119,380 more rows, 22 more variables: children <dbl>, babies <dbl>,
#   meal <chr>, country <chr>, market_segment <chr>,
#   distribution_channel <chr>, is_repeated_guest <dbl>,
#   previous_cancellations <dbl>, previous_bookings_not_canceled <dbl>,
#   reserved_room_type <chr>, assigned_room_type <chr>, booking_changes <dbl>,
#   deposit_type <chr>, agent <chr>, company <chr>, days_in_waiting_list <dbl>,
#   customer_type <chr>, adr <dbl>, required_car_parking_spaces <dbl>, …
…
new

# A tibble: 119,390 × 30
   hotel      reservat…¹ reser…² Arriv…³ is_ca…⁴ lead_…⁵ Arriv…⁶ Weeke…⁷ Week …⁸
   <chr>      <date>     <chr>   <chr>   <chr>     <dbl>   <dbl>   <dbl>   <dbl>
 1 Resort Ho… 2015-07-01 Check-… 01/07/… no          342      27       0       0
 2 Resort Ho… 2015-07-01 Check-… 01/07/… no          737      27       0       0
 3 Resort Ho… 2015-07-02 Check-… 01/07/… no            7      27       0       1
 4 Resort Ho… 2015-07-02 Check-… 01/07/… no           13      27       0       1
 5 Resort Ho… 2015-07-03 Check-… 01/07/… no           14      27       0       2
 6 Resort Ho… 2015-07-03 Check-… 01/07/… no           14      27       0       2
 7 Resort Ho… 2015-07-03 Check-… 01/07/… no            0      27       0       2
 8 Resort Ho… 2015-07-03 Check-… 01/07/… no            9      27       0       2
 9 Resort Ho… 2015-05-06 Cancel… 01/07/… yes          85      27       0       3
10 Resort Ho… 2015-04-22 Cancel… 01/07/… yes          75      27       0       3
# … with 119,380 more rows, 21 more variables: adults <dbl>, children <dbl>,
#   babies <dbl>, meal <chr>, country <chr>, market_segment <chr>,
#   distribution_channel <chr>, is_repeated_guest <chr>,
#   previous_cancellations <dbl>, previous_bookings_not_canceled <dbl>,
#   reserved_room_type <chr>, assigned_room_type <chr>, booking_changes <dbl>,
#   deposit_type <chr>, agent <chr>, company <chr>, days_in_waiting_list <dbl>,
#   customer_type <chr>, adr <dbl>, required_car_parking_spaces <dbl>, …
…
