Challenge 2
…
# A tibble: 2 × 1
  hotel       
  <chr>       
1 Resort Hotel
2 City Hotel  

Code

h_bookings %>%
  select("country")%>%
  distinct() #allows use to select the country column and find distinct values; this simply tells us the different countries that data was taken from for hotels. There are about 10 different countires where data was gathered from.

# A tibble: 178 × 1
   country
   <chr>  
 1 PRT    
 2 GBR    
 3 USA    
 4 ESP    
 5 IRL    
 6 FRA    
 7 NULL   
 8 ROU    
 9 NOR    
10 OMN    
# … with 168 more rows
…
Code

summarize(h_bookings,sd_adults = sd(`adults`, na.rm = TRUE)) #this tells us the standard deviation of the amount of adults stayed for all bookings

# A tibble: 1 × 1
  sd_adults
      <dbl>
1     0.579

Code

filter(h_bookings, `arrival_date_month` == 'September', na.rm=TRUE) #will select rows that only contain the value "September"

# A tibble: 10,508 × 32
   hotel  is_ca…¹ lead_…² arriv…³ arriv…⁴ arriv…⁵ arriv…⁶ stays…⁷ stays…⁸ adults
   <chr>    <dbl>   <dbl>   <dbl> <chr>     <dbl>   <dbl>   <dbl>   <dbl>  <dbl>
 1 Resor…       1      38    2015 Septem…      36       1       0       2      2
 2 Resor…       1      47    2015 Septem…      36       1       0       2      2
 3 Resor…       0      48    2015 Septem…      36       1       0       3      2
 4 Resor…       0      48    2015 Septem…      36       1       0       3      2
 5 Resor…       0      27    2015 Septem…      36       1       0       3      2
 6 Resor…       1      71    2015 Septem…      36       1       0       3      2
 7 Resor…       1      85    2015 Septem…      36       1       0       4      2
 8 Resor…       1     132    2015 Septem…      36       1       0       4      2
 9 Resor…       0      50    2015 Septem…      36       1       0       4      2
10 Resor…       0     122    2015 Septem…      36       1       0       4      2
# … with 10,498 more rows, 22 more variables: children <dbl>, babies <dbl>,
#   meal <chr>, country <chr>, market_segment <chr>,
#   distribution_channel <chr>, is_repeated_guest <dbl>,
#   previous_cancellations <dbl>, previous_bookings_not_canceled <dbl>,
#   reserved_room_type <chr>, assigned_room_type <chr>, booking_changes <dbl>,
#   deposit_type <chr>, agent <chr>, company <chr>, days_in_waiting_list <dbl>,
#   customer_type <chr>, adr <dbl>, required_car_parking_spaces <dbl>, …
…
