FINAL PROJECT
…
Rows: 119390 Columns: 32
── Column specification ────────────────────────────────────────────────────────
Delimiter: ","
chr  (13): hotel, arrival_date_month, meal, country, market_segment, distrib...
dbl  (18): is_canceled, lead_time, arrival_date_year, arrival_date_week_numb...
date  (1): reservation_status_date

ℹ Use `spec()` to retrieve the full column specification for this data.
ℹ Specify the column types or set `show_col_types = FALSE` to quiet this message.

Code

dataset

# A tibble: 119,390 × 32
   hotel  is_ca…¹ lead_…² arriv…³ arriv…⁴ arriv…⁵ arriv…⁶ stays…⁷ stays…⁸ adults
   <chr>    <dbl>   <dbl>   <dbl> <chr>     <dbl>   <dbl>   <dbl>   <dbl>  <dbl>
 1 Resor…       0     342    2015 July         27       1       0       0      2
 2 Resor…       0     737    2015 July         27       1       0       0      2
 3 Resor…       0       7    2015 July         27       1       0       1      1
 4 Resor…       0      13    2015 July         27       1       0       1      1
 5 Resor…       0      14    2015 July         27       1       0       2      2
 6 Resor…       0      14    2015 July         27       1       0       2      2
 7 Resor…       0       0    2015 July         27       1       0       2      2
 8 Resor…       0       9    2015 July         27       1       0       2      2
 9 Resor…       1      85    2015 July         27       1       0       3      2
10 Resor…       1      75    2015 July         27       1       0       3      2
# … with 119,380 more rows, 22 more variables: children <dbl>, babies <dbl>,
#   meal <chr>, country <chr>, market_segment <chr>,
#   distribution_channel <chr>, is_repeated_guest <dbl>,
#   previous_cancellations <dbl>, previous_bookings_not_canceled <dbl>,
#   reserved_room_type <chr>, assigned_room_type <chr>, booking_changes <dbl>,
#   deposit_type <chr>, agent <chr>, company <chr>, days_in_waiting_list <dbl>,
#   customer_type <chr>, adr <dbl>, required_car_parking_spaces <dbl>, …
…
Warning in countrycode_convert(sourcevar = sourcevar, origin = origin, destination = dest, : Some values were not matched unambiguously: CN, NULL, TMP

Code

#displaying the data
tidy_data

# A tibble: 119,386 × 27
   hotel    country is_ca…¹ lead_…² booking_…³ arrival_…⁴ days_…⁵ adults child…⁶
   <chr>    <chr>     <dbl>   <dbl> <date>     <date>       <dbl>  <dbl>   <dbl>
 1 Resort … Portug…       0     342 2014-07-24 2015-07-01       0      2       0
 2 Resort … Portug…       0     737 2013-06-24 2015-07-01       0      2       0
 3 Resort … United…       0       7 2015-06-24 2015-07-01       1      1       0
 4 Resort … United…       0      13 2015-06-18 2015-07-01       1      1       0
 5 Resort … United…       0      14 2015-06-17 2015-07-01       2      2       0
 6 Resort … United…       0      14 2015-06-17 2015-07-01       2      2       0
 7 Resort … Portug…       0       0 2015-07-01 2015-07-01       2      2       0
 8 Resort … Portug…       0       9 2015-06-22 2015-07-01       2      2       0
 9 Resort … Portug…       1      85 2015-04-07 2015-07-01       3      2       0
10 Resort … Portug…       1      75 2015-04-17 2015-07-01       3      2       0
# … with 119,376 more rows, 18 more variables: babies <dbl>, meal <chr>,
#   market_segment <chr>, distribution_channel <chr>, is_repeated_guest <dbl>,
#   previous_cancellations <dbl>, previous_bookings_not_canceled <dbl>,
#   reserved_room_type <chr>, assigned_room_type <chr>, booking_changes <dbl>,
#   deposit_type <chr>, days_in_waiting_list <dbl>, customer_type <chr>,
#   adr <dbl>, required_car_parking_spaces <dbl>,
#   total_of_special_requests <dbl>, reservation_status <chr>, …
…
