Yoshita Varma Final Project
…
Rows: 5656458 Columns: 6
── Column specification ────────────────────────────────────────────────────────
Delimiter: ","
chr (4): CountryName, CountryCode, IndicatorName, IndicatorCode
dbl (2): Year, Value

ℹ Use `spec()` to retrieve the full column specification for this data.
ℹ Specify the column types or set `show_col_types = FALSE` to quiet this message.

Code

data_r

# A tibble: 5,656,458 × 6
   CountryName CountryCode IndicatorName                   Indic…¹  Year   Value
   <chr>       <chr>       <chr>                           <chr>   <dbl>   <dbl>
 1 Arab World  ARB         Adolescent fertility rate (bir… SP.ADO…  1960 1.34e+2
 2 Arab World  ARB         Age dependency ratio (% of wor… SP.POP…  1960 8.78e+1
 3 Arab World  ARB         Age dependency ratio, old (% o… SP.POP…  1960 6.63e+0
 4 Arab World  ARB         Age dependency ratio, young (%… SP.POP…  1960 8.10e+1
 5 Arab World  ARB         Arms exports (SIPRI trend indi… MS.MIL…  1960 3   e+6
 6 Arab World  ARB         Arms imports (SIPRI trend indi… MS.MIL…  1960 5.38e+8
 7 Arab World  ARB         Birth rate, crude (per 1,000 p… SP.DYN…  1960 4.77e+1
 8 Arab World  ARB         CO2 emissions (kt)              EN.ATM…  1960 5.96e+4
 9 Arab World  ARB         CO2 emissions (metric tons per… EN.ATM…  1960 6.44e-1
10 Arab World  ARB         CO2 emissions from gaseous fue… EN.ATM…  1960 5.04e+0
# … with 5,656,448 more rows, and abbreviated variable name ¹​IndicatorCode
…
Code

    data <- left_join(data_r, continentData, by = 'CountryCode')

The dataset cleaning and preparation involved addressing the 5.6 million rows and 1344 indicators with missing values. This required handling several blank sections of data and importing missing information from other sources to complete the CSV files.

Code

# Removing Null values
data <- data %>% 
  #filter(!(Continent == "NA"))
  filter(!is.na(Continent))
data

# A tibble: 4,827,592 × 7
   CountryName CountryCode IndicatorName           Indic…¹  Year   Value Conti…²
   <chr>       <chr>       <chr>                   <chr>   <dbl>   <dbl> <chr>  
 1 Afghanistan AFG         Adolescent fertility r… SP.ADO…  1960 1.45e+2 Asia   
 2 Afghanistan AFG         Age dependency ratio (… SP.POP…  1960 8.17e+1 Asia   
 3 Afghanistan AFG         Age dependency ratio, … SP.POP…  1960 5.09e+0 Asia   
 4 Afghanistan AFG         Age dependency ratio, … SP.POP…  1960 7.66e+1 Asia   
 5 Afghanistan AFG         Arms imports (SIPRI tr… MS.MIL…  1960 4   e+7 Asia   
 6 Afghanistan AFG         Birth rate, crude (per… SP.DYN…  1960 5.13e+1 Asia   
 7 Afghanistan AFG         CO2 emissions (kt)      EN.ATM…  1960 4.14e+2 Asia   
 8 Afghanistan AFG         CO2 emissions (metric … EN.ATM…  1960 4.61e-2 Asia   
 9 Afghanistan AFG         CO2 emissions from gas… EN.ATM…  1960 0       Asia   
10 Afghanistan AFG         CO2 emissions from gas… EN.ATM…  1960 0       Asia   
# … with 4,827,582 more rows, and abbreviated variable names ¹​IndicatorCode,
#   ²​Continent
…
To summarize the data and gain a better understanding of the columns and their datatypes, the summary function was employed. This generated the mean, first quartile, and third quartile of the numerical attributes.

Code

data_LifeExpectancy <- data %>%
  filter(IndicatorName == "Life expectancy at birth, total (years)")
data_LifeExpectancy

# A tibble: 10,247 × 7
   CountryName         CountryCode IndicatorName     Indic…¹  Year Value Conti…²
   <chr>               <chr>       <chr>             <chr>   <dbl> <dbl> <chr>  
 1 Afghanistan         AFG         Life expectancy … SP.DYN…  1960  32.3 Asia   
 2 Albania             ALB         Life expectancy … SP.DYN…  1960  62.3 Europe 
 3 Algeria             DZA         Life expectancy … SP.DYN…  1960  46.1 Africa 
 4 Angola              AGO         Life expectancy … SP.DYN…  1960  33.0 Africa 
 5 Antigua and Barbuda ATG         Life expectancy … SP.DYN…  1960  61.8 North …
 6 Argentina           ARG         Life expectancy … SP.DYN…  1960  65.2 South …
 7 Armenia             ARM         Life expectancy … SP.DYN…  1960  65.9 Asia   
 8 Aruba               ABW         Life expectancy … SP.DYN…  1960  65.6 North …
 9 Australia           AUS         Life expectancy … SP.DYN…  1960  70.8 Oceania
10 Austria             AUT         Life expectancy … SP.DYN…  1960  68.6 Europe 
# … with 10,237 more rows, and abbreviated variable names ¹​IndicatorCode,
#   ²​Continent

As the aim is to study the world’s development based on a few selected indicators, a subset of the World Development Indicators dataset was created for each indicator. For example, a subset of the life expectancy data was created to analyze the trend of average life expectancy over the years. This subset was used to answer one of the research questions focused on exploring the trend of life expectancy across the world. By obtaining these subsets, it becomes easier to study specific aspects of development and draw meaningful insights and conclusions.

STATISTICS

Code

data_group_Country <- data_LifeExpectancy %>%
  group_by(CountryName)
data_group_Country

# A tibble: 10,247 × 7
# Groups:   CountryName [200]
   CountryName         CountryCode IndicatorName     Indic…¹  Year Value Conti…²
   <chr>               <chr>       <chr>             <chr>   <dbl> <dbl> <chr>  
 1 Afghanistan         AFG         Life expectancy … SP.DYN…  1960  32.3 Asia   
 2 Albania             ALB         Life expectancy … SP.DYN…  1960  62.3 Europe 
 3 Algeria             DZA         Life expectancy … SP.DYN…  1960  46.1 Africa 
 4 Angola              AGO         Life expectancy … SP.DYN…  1960  33.0 Africa 
 5 Antigua and Barbuda ATG         Life expectancy … SP.DYN…  1960  61.8 North …
 6 Argentina           ARG         Life expectancy … SP.DYN…  1960  65.2 South …
 7 Armenia             ARM         Life expectancy … SP.DYN…  1960  65.9 Asia   
 8 Aruba               ABW         Life expectancy … SP.DYN…  1960  65.6 North …
 9 Australia           AUS         Life expectancy … SP.DYN…  1960  70.8 Oceania
10 Austria             AUT         Life expectancy … SP.DYN…  1960  68.6 Europe 
# … with 10,237 more rows, and abbreviated variable names ¹​IndicatorCode,
#   ²​Continent
…
