Homework 2
…
Code

Indicators %>% 
  colnames()

[1] "CountryName"   "CountryCode"   "IndicatorName" "IndicatorCode"
[5] "Year"          "Value"        

Code

Indicators %>%
  distinct(CountryName) 

# A tibble: 247 × 1
   CountryName                              
   <chr>                                    
 1 Arab World                               
 2 Caribbean small states                   
 3 Central Europe and the Baltics           
 4 East Asia & Pacific (all income levels)  
 5 East Asia & Pacific (developing only)    
 6 Euro area                                
 7 Europe & Central Asia (all income levels)
 8 Europe & Central Asia (developing only)  
 9 European Union                           
10 Fragile and conflict affected situations 
# … with 237 more rows

Code

Indicators %>% 
  distinct(IndicatorName)

# A tibble: 1,344 × 1
   IndicatorName                                                
   <chr>                                                        
 1 Adolescent fertility rate (births per 1,000 women ages 15-19)
 2 Age dependency ratio (% of working-age population)           
 3 Age dependency ratio, old (% of working-age population)      
 4 Age dependency ratio, young (% of working-age population)    
 5 Arms exports (SIPRI trend indicator values)                  
 6 Arms imports (SIPRI trend indicator values)                  
 7 Birth rate, crude (per 1,000 people)                         
 8 CO2 emissions (kt)                                           
 9 CO2 emissions (metric tons per capita)                       
10 CO2 emissions from gaseous fuel consumption (% of total)     
# … with 1,334 more rows

Code

Indicators %>% 
  distinct(Year)

# A tibble: 56 × 1
    Year
   <dbl>
 1  1960
 2  1961
 3  1962
 4  1963
 5  1964
 6  1965
 7  1966
 8  1967
 9  1968
10  1969
# … with 46 more rows
…
