HW 3
…
Rows: 119390 Columns: 32
── Column specification ────────────────────────────────────────────────────────
Delimiter: ","
chr  (13): hotel, arrival_date_month, meal, country, market_segment, distrib...
dbl  (18): is_canceled, lead_time, arrival_date_year, arrival_date_week_numb...
date  (1): reservation_status_date

ℹ Use `spec()` to retrieve the full column specification for this data.
ℹ Specify the column types or set `show_col_types = FALSE` to quiet this message.

Code

dataset

# A tibble: 119,390 × 32
   hotel  is_ca…¹ lead_…² arriv…³ arriv…⁴ arriv…⁵ arriv…⁶ stays…⁷ stays…⁸ adults
   <chr>    <dbl>   <dbl>   <dbl> <chr>     <dbl>   <dbl>   <dbl>   <dbl>  <dbl>
 1 Resor…       0     342    2015 July         27       1       0       0      2
 2 Resor…       0     737    2015 July         27       1       0       0      2
 3 Resor…       0       7    2015 July         27       1       0       1      1
 4 Resor…       0      13    2015 July         27       1       0       1      1
 5 Resor…       0      14    2015 July         27       1       0       2      2
 6 Resor…       0      14    2015 July         27       1       0       2      2
 7 Resor…       0       0    2015 July         27       1       0       2      2
 8 Resor…       0       9    2015 July         27       1       0       2      2
 9 Resor…       1      85    2015 July         27       1       0       3      2
10 Resor…       1      75    2015 July         27       1       0       3      2
# … with 119,380 more rows, 22 more variables: children <dbl>, babies <dbl>,
#   meal <chr>, country <chr>, market_segment <chr>,
#   distribution_channel <chr>, is_repeated_guest <dbl>,
#   previous_cancellations <dbl>, previous_bookings_not_canceled <dbl>,
#   reserved_room_type <chr>, assigned_room_type <chr>, booking_changes <dbl>,
#   deposit_type <chr>, agent <chr>, company <chr>, days_in_waiting_list <dbl>,
#   customer_type <chr>, adr <dbl>, required_car_parking_spaces <dbl>, …
Briefly describe the data

This dataset describes the information of the reservations made in Resort Hotel and City Hotel. There are 119390 rows and 32 columns. Each columns represents various data such as for what dates and what hotel the booking was made, whether reservation is called or not and if the payment is made or not etc.

Tidy Data (as needed)

The data needs to be cleaned. The date is spread across in multiple columns. If is there in a single column it;’ll will be easy to calculate stats. Can also calculate the date with lead time and date of arrival columns.

The country column is placed in the 14th place, it should be moved up to 2nd place i.e after the hotel column. Created a new column arrival_date by getting the date from “arrival_date_day_of_month”, “arrival_date_month”,“arrival_date_year” columns. Removing these 3 columns and moving the arrival date column to column after “lead_time”. Creating the new column booking_date to know the date of booking with the information from columns lead_time and arrival_date. Created a new column “child” to get the total of children plus babies to replace the columns children and babies. After tidying up the data, total columns remaining are 28

Code

dplyr::select(dataset, 3:7 )

# A tibble: 119,390 × 5
   lead_time arrival_date_year arrival_date_month arrival_date_week_nu…¹ arriv…²
       <dbl>             <dbl> <chr>                               <dbl>   <dbl>
 1       342              2015 July                                   27       1
 2       737              2015 July                                   27       1
 3         7              2015 July                                   27       1
 4        13              2015 July                                   27       1
 5        14              2015 July                                   27       1
 6        14              2015 July                                   27       1
 7         0              2015 July                                   27       1
 8         9              2015 July                                   27       1
 9        85              2015 July                                   27       1
10        75              2015 July                                   27       1
# … with 119,380 more rows, and abbreviated variable names
#   ¹​arrival_date_week_number, ²​arrival_date_day_of_month

Code

#tidying the dataset
tidy_data <- dataset %>%
  relocate("country",.after = "hotel") %>% #relocating the country column
  mutate(arrival_date = (str_c(arrival_date_day_of_month,arrival_date_month,arrival_date_year, sep = "/")), arrival_date = dmy(arrival_date), .after = lead_time) %>% #variable for arrival date
  mutate(booking_date = arrival_date-days(lead_time), .after = lead_time) %>% #variable to know the date of booking
  mutate(childs = children + babies, .after = adults) %>%
  dplyr::select(-c("lead_time","children","babies"))
tidy_data <- tidy_data[,-6:-9] #removed columns with arrival date information
tidy_data

# A tibble: 119,390 × 28
   hotel     country is_ca…¹ booking_…² arrival_…³ stays…⁴ stays…⁵ adults childs
   <chr>     <chr>     <dbl> <date>     <date>       <dbl>   <dbl>  <dbl>  <dbl>
 1 Resort H… PRT           0 2014-07-24 2015-07-01       0       0      2      0
 2 Resort H… PRT           0 2013-06-24 2015-07-01       0       0      2      0
 3 Resort H… GBR           0 2015-06-24 2015-07-01       0       1      1      0
 4 Resort H… GBR           0 2015-06-18 2015-07-01       0       1      1      0
 5 Resort H… GBR           0 2015-06-17 2015-07-01       0       2      2      0
 6 Resort H… GBR           0 2015-06-17 2015-07-01       0       2      2      0
 7 Resort H… PRT           0 2015-07-01 2015-07-01       0       2      2      0
 8 Resort H… PRT           0 2015-06-22 2015-07-01       0       2      2      0
 9 Resort H… PRT           1 2015-04-07 2015-07-01       0       3      2      0
10 Resort H… PRT           1 2015-04-17 2015-07-01       0       3      2      0
# … with 119,380 more rows, 19 more variables: meal <chr>,
#   market_segment <chr>, distribution_channel <chr>, is_repeated_guest <dbl>,
#   previous_cancellations <dbl>, previous_bookings_not_canceled <dbl>,
#   reserved_room_type <chr>, assigned_room_type <chr>, booking_changes <dbl>,
#   deposit_type <chr>, agent <chr>, company <chr>, days_in_waiting_list <dbl>,
#   customer_type <chr>, adr <dbl>, required_car_parking_spaces <dbl>,
#   total_of_special_requests <dbl>, reservation_status <chr>, …
…
variable used: hotel With this above visualization we can answer the question of which hotel is preferred more. By referring to the above plot, we can say that the City Hotel is preferred by higher percentage of people i.e 66%.

Code

CountLocation <- tidy_data %>%
 count(country) %>%
  arrange(desc(n))
CountLocation

# A tibble: 178 × 2
   country     n
   <chr>   <int>
 1 PRT     48590
 2 GBR     12129
 3 FRA     10415
 4 ESP      8568
 5 DEU      7287
 6 ITA      3766
 7 IRL      3375
 8 BEL      2342
 9 BRA      2224
10 NLD      2104
# … with 168 more rows
…
