Homwework 3
…
Statistics and group by functions

Using group by for continent-

data_group <- data %>%
  group_by(Continent)
data_group

# A tibble: 20,036 × 23
# Groups:   Continent [7]
   Time.fr…¹ Q1    Q2    Q3    Q4    Q5    Q6    Q7_Pa…² Q7_Pa…³ Q7_Pa…⁴ Q7_Pa…⁵
       <int> <chr> <chr> <chr> <chr> <chr> <chr> <chr>   <chr>   <chr>   <chr>  
 1      1838 35-39 Man   Colo… Doct… Stud… 5-10… "Pytho… "R"     "SQL"   "C"    
 2    289287 30-34 Man   Unit… Mast… Data… 5-10… "Pytho… "R"     "SQL"   ""     
 3       860 35-39 Man   Arge… Bach… Soft… 10-2… ""      ""      ""      ""     
 4       507 30-34 Man   Unit… Mast… Data… 5-10… "Pytho… ""      "SQL"   ""     
 5        78 30-34 Man   Japan Mast… Soft… 3-5 … "Pytho… ""      ""      ""     
 6       401 30-34 Man   India Bach… Data… < 1 … "Pytho… "R"     ""      ""     
 7       748 22-24 Man   Braz… Bach… Stud… 3-5 … "Pytho… "R"     ""      "C"    
 8    171196 25-29 Woman China Mast… Stud… < 1 … ""      "R"     ""      ""     
 9       762 35-39 Man   Germ… Doct… Data… 5-10… "Pytho… ""      "SQL"   ""     
10       150 22-24 Man   China No f… Stud… < 1 … "Pytho… ""      "SQL"   ""     
# … with 20,026 more rows, 12 more variables: Q7_Part_5 <chr>, Q7_Part_6 <chr>,
#   Q7_Part_7 <chr>, Q7_Part_8 <chr>, Q7_Part_9 <chr>, Q7_Part_10 <chr>,
#   Q7_Part_11 <chr>, Q7_Part_12 <chr>, Q7_OTHER <chr>, Q8 <chr>, Edu <chr>,
#   Continent <chr>, and abbreviated variable names
#   ¹​Time.from.Start.to.Finish..seconds., ²​Q7_Part_1, ³​Q7_Part_2, ⁴​Q7_Part_3,
#   ⁵​Q7_Part_4
…
