Final Project
…
Now that we know that there are multiple types of transactions -> Cancelled and Sell, there is one interesting thing that we can do with this data => Calculate the most sought after products (stocks with net quantity > 0 => most bought products) and also the dead stock (stock with net quantity < 0 => the most returned product).

Code

retail.quantity <- mutated_retail %>% filter(str_detect(substr(StockCode, 1, 1), '^[0-9]')) %>% group_by(StockCode, Description) %>% summarise(net_quantity = sum(Quantity))
hot_stock <- retail.quantity %>% arrange(desc(net_quantity))
hot_stock

# A tibble: 4,150 × 3
# Groups:   StockCode [3,914]
   StockCode Description                        net_quantity
   <chr>     <chr>                                     <dbl>
 1 84077     WORLD WAR 2 GLIDERS ASSTD DESIGNS         53847
 2 85099B    JUMBO BAG RED RETROSPOT                   47359
 3 84879     ASSORTED COLOUR BIRD ORNAMENT             36381
 4 22197     POPCORN HOLDER                            36334
 5 21212     PACK OF 72 RETROSPOT CAKE CASES           36039
 6 85123A    WHITE HANGING HEART T-LIGHT HOLDER        35021
 7 23084     RABBIT NIGHT LIGHT                        30680
 8 22492     MINI PAINT SET VINTAGE                    26437
 9 22616     PACK OF 12 LONDON TISSUES                 26111
10 21977     PACK OF 60 PINK PAISLEY CAKE CASES        24753
# … with 4,140 more rows

Code

dead_stock <- retail.quantity %>% arrange(net_quantity)
dead_stock

# A tibble: 4,150 × 3
# Groups:   StockCode [3,914]
   StockCode Description                     net_quantity
   <chr>     <chr>                                  <dbl>
 1 21645     ASSORTED TUTTI FRUTTI ROUND BOX          -24
 2 79323W    WHITE CHERRY LIGHTS                       -8
 3 21144     PINK POODLE HANGING DECORATION            -7
 4 20703     BLUE PADDED SOFT MOBILE                   -6
 5 21412     VINTAGE GOLD TINSEL REEL                  -6
 6 35400     WOODEN BOX ADVENT CALENDAR                -6
 7 79323P    PINK CHERRY LIGHTS                        -4
 8 84750A    PINK SMALL GLASS CAKE STAND               -3
 9 85042     ANTIQUE LILY FAIRY LIGHTS                 -3
10 85063     CREAM SWEETHEART MAGAZINE RACK            -3
# … with 4,140 more rows
…
