Challenge 2
…
This metric gives us the percentage of bookings canceled every year per hotel. From the metric, we can see that the percentage of canceled bookings has been high in City Hotel as compared to Resort Hotel

Percentage of canceled bookings per year

Code

country_df <- count(bookings, hotel, arrival_date_year, arrival_date_month)
country_df %>% group_by(hotel, arrival_date_year) %>% slice_max(order_by = arrival_date_month, n = 5)

# A tibble: 30 × 4
# Groups:   hotel, arrival_date_year [6]
   hotel      arrival_date_year arrival_date_month     n
   <chr>                  <dbl> <chr>              <int>
 1 City Hotel              2015 September           3529
 2 City Hotel              2015 October             3386
 3 City Hotel              2015 November            1235
 4 City Hotel              2015 July                1398
 5 City Hotel              2015 December            1654
 6 City Hotel              2016 September           3871
 7 City Hotel              2016 October             4219
 8 City Hotel              2016 November            3122
 9 City Hotel              2016 May                 3676
10 City Hotel              2016 March               3046
# … with 20 more rows
…
