Challenge 6
…
Visualizing Part-Whole Relationships

Here, I try to visualize the trends of the different types of debts over the years.

First, the data is pivoted so that the data is in a compact form

pivot_data <- tidy_data %>%
  pivot_longer(!c(Year, Quarter), names_to = "Type", values_to = "Value" )

pivot_data

# A tibble: 518 × 4
   Year  Quarter Type         Value
   <chr> <chr>   <chr>        <dbl>
 1 03    Q1      Mortgage     4.94 
 2 03    Q1      HE Revolving 0.242
 3 03    Q1      Auto Loan    0.641
 4 03    Q1      Credit Card  0.688
 5 03    Q1      Student Loan 0.241
 6 03    Q1      Other        0.478
 7 03    Q1      Total        7.23 
 8 03    Q2      Mortgage     5.08 
 9 03    Q2      HE Revolving 0.26 
10 03    Q2      Auto Loan    0.622
# … with 508 more rows
…
