Challenge 2: Data Wrangling
…
sum(railroad_employment[, "employees"])

[1] 256094

Total number of railway employees employed are 256094 which is about 0.08% of the total population of US(2011 Census Total population of 310 million)

Code

railroad_employment %>%
  group_by(state) %>%
  summarise(total_employees = sum(employees),
            num_counties = n())%>%
  arrange(desc(total_employees))

# A tibble: 54 × 3
   state total_employees num_counties
   <chr>           <dbl>        <int>
 1 TX              19839          221
 2 IL              19131          103
 3 NY              17050           61
 4 NE              13176           89
 5 CA              13137           55
 6 PA              12769           65
 7 OH               9056           88
 8 GA               8605          152
 9 IN               8537           92
10 MO               8419          115
# … with 44 more rows
…
